<svg
        xmlns="http://www.w3.org/2000/svg"
        xmlns:xlink="http://www.w3.org/1999/xlink"
        width="39.5px" height="29.5px">
    <g>
    <path fill-rule="evenodd"  stroke-width="38px" stroke-linecap="butt" stroke-linejoin="miter"
          d="M14.500,0.500 L24.500,0.500 C32.232,0.500 38.500,6.768 38.500,14.500 C38.500,22.232 32.232,28.500 24.500,28.500 L14.500,28.500 C6.768,28.500 0.500,22.232 0.500,14.500 C0.500,6.768 6.768,0.500 14.500,0.500 Z
          M26.344,9.961 C23.958,7.007 19.264,8.750 19.264,11.750 C19.264,8.750 14.570,7.007 12.184,9.961 C9.719,13.015 12.149,18.364 19.264,21.437 C26.379,18.364 28.809,13.015 26.344,9.961 Z"/>
    </g>
</svg>