<svg
        xmlns="http://www.w3.org/2000/svg"
        xmlns:xlink="http://www.w3.org/1999/xlink"
        width="60px" height="44px">
    <path fill-rule="evenodd"  fill="rgb(41, 57, 66)"
          d="M43.599,43.999 L43.599,38.265 C43.599,36.175 42.680,34.209 41.064,32.878 C39.685,31.746 38.281,30.714 36.927,29.781 C36.939,29.744 36.952,29.694 36.952,29.656 L36.952,22.790 C36.094,22.218 35.523,21.235 35.523,20.115 L35.523,12.987 C35.523,9.442 38.393,6.568 41.934,6.568 L42.692,6.568 L43.462,6.568 C47.003,6.568 49.874,9.442 49.874,12.987 L49.874,20.115 C49.874,21.235 49.302,22.218 48.445,22.790 L48.445,29.656 C48.445,29.781 48.507,29.893 48.619,29.943 C49.588,30.415 54.334,32.816 58.745,36.449 C59.540,37.108 60.000,38.091 60.000,39.111 L60.000,43.999 L43.599,43.999 ZM27.099,27.144 C27.099,27.280 27.186,27.417 27.310,27.480 C28.441,28.039 34.032,30.863 39.213,35.130 C40.157,35.901 40.692,37.058 40.692,38.265 L40.692,43.999 L20.340,43.999 L0.000,43.999 L0.000,38.265 C0.000,37.058 0.547,35.901 1.479,35.130 C6.660,30.863 12.239,28.039 13.382,27.480 C13.506,27.417 13.593,27.280 13.593,27.144 L13.593,19.070 C12.574,18.386 11.903,17.229 11.903,15.923 L11.903,7.551 C11.903,3.384 15.283,-0.000 19.445,-0.000 L20.352,-0.000 L21.247,-0.000 C25.409,-0.000 28.789,3.384 28.789,7.551 L28.789,15.923 C28.789,17.242 28.118,18.399 27.099,19.070 L27.099,27.144 Z"/>
</svg>