<svg
        xmlns="http://www.w3.org/2000/svg"
        xmlns:xlink="http://www.w3.org/1999/xlink"
        width="60px" height="38px">
    <path fill-rule="evenodd"  fill="rgb(41, 57, 66)"
          d="M59.897,14.427 C59.864,14.521 59.388,14.535 59.156,14.459 C58.769,14.332 58.453,13.989 57.972,14.184 C57.876,14.223 57.647,14.073 57.554,13.952 C56.825,13.000 55.968,12.118 55.681,10.901 C55.549,10.345 55.522,9.765 55.439,9.196 C55.354,8.619 55.258,8.042 55.047,7.472 C54.218,8.152 55.044,8.912 54.829,9.699 C54.191,9.756 53.735,10.203 53.783,10.887 C53.822,11.465 54.117,12.025 54.315,12.646 C54.256,12.672 54.093,12.780 53.914,12.821 C53.170,12.995 52.793,13.465 52.729,14.218 C52.720,14.319 52.669,14.426 52.611,14.512 C51.692,15.893 51.482,17.470 51.412,19.068 C51.395,19.444 51.540,19.886 51.753,20.200 C52.243,20.921 53.037,20.797 53.394,20.019 C53.569,19.638 53.820,19.291 54.053,18.902 C54.428,19.177 54.734,19.402 55.081,19.657 C55.182,19.461 55.265,19.299 55.345,19.141 C56.896,19.785 57.202,21.457 58.253,22.551 C58.039,22.802 57.835,23.041 57.547,23.380 C57.067,22.468 56.666,21.628 56.189,20.834 C55.954,20.441 55.581,20.133 55.270,19.787 C55.215,19.808 55.161,19.830 55.106,19.851 C55.181,20.184 55.148,20.619 55.348,20.832 C56.438,21.989 56.307,23.480 56.606,24.873 C56.895,26.215 56.359,27.236 55.665,28.209 C55.461,28.495 54.874,28.506 54.429,28.654 C54.165,27.974 53.885,27.493 54.482,26.939 C55.038,26.422 55.037,25.725 54.694,24.932 C53.976,25.068 53.253,25.206 52.529,25.341 C52.382,25.368 52.232,25.376 52.085,25.405 C51.075,25.607 50.315,25.256 49.717,24.416 C49.322,23.860 47.753,23.675 47.186,24.086 C47.059,24.178 46.980,24.392 46.957,24.561 C46.897,25.008 46.819,25.467 46.860,25.911 C46.936,26.731 46.391,27.090 45.844,27.464 C45.493,27.705 45.148,27.988 44.757,28.132 C44.172,28.348 43.549,28.463 42.940,28.612 C42.787,28.650 42.574,28.596 42.476,28.684 C41.978,29.129 41.445,29.135 40.862,28.908 C40.729,28.856 40.545,28.798 40.433,28.849 C39.379,29.335 38.483,28.786 37.555,28.437 C36.476,28.031 36.317,28.111 35.877,29.185 C35.818,29.330 35.602,29.475 35.440,29.501 C34.896,29.592 34.342,29.680 33.794,29.670 C33.247,29.660 32.821,29.779 32.423,30.185 C31.801,30.820 31.021,30.613 30.678,29.771 C30.646,29.693 30.647,29.601 30.622,29.519 C30.402,28.790 30.351,28.693 29.809,28.850 L29.982,26.923 C29.982,26.917 29.982,26.911 29.982,26.905 C29.983,26.896 29.984,26.886 29.985,26.877 C29.985,26.871 29.984,26.866 29.984,26.860 C29.984,26.855 29.984,26.849 29.984,26.844 C29.976,26.488 29.692,26.204 29.333,26.204 L29.162,26.204 L26.522,21.068 C26.411,20.851 26.189,20.716 25.943,20.716 L21.436,20.715 L21.608,19.343 C21.657,18.795 21.489,18.278 21.134,17.886 C20.780,17.495 20.285,17.280 19.741,17.280 L7.853,17.280 C7.986,17.044 8.208,16.866 8.562,16.769 C9.596,16.485 10.024,15.802 9.861,14.734 C9.757,14.050 9.901,13.513 10.689,13.345 C10.815,13.319 11.003,13.120 10.996,13.011 C10.963,12.504 11.318,12.377 11.669,12.295 C12.289,12.151 12.922,12.061 13.624,11.934 C13.400,10.859 14.159,10.565 14.996,10.282 C15.399,10.146 15.752,9.859 16.165,9.702 C16.756,8.637 16.770,8.630 18.409,8.844 C18.409,9.678 18.409,10.524 18.409,11.427 C17.523,11.549 17.704,10.606 17.229,10.288 C16.868,10.707 16.502,11.132 16.050,11.656 C16.180,11.816 16.379,12.074 16.590,12.321 C16.868,12.643 17.145,12.402 17.451,12.359 C17.725,12.321 18.044,12.535 18.330,12.666 C19.061,13.000 19.278,12.917 19.575,12.169 C19.652,11.976 19.743,11.788 19.815,11.625 C19.922,11.625 19.993,11.611 20.000,11.627 C20.468,12.656 21.242,12.571 22.128,12.275 C22.647,12.103 23.246,11.935 23.381,12.814 C23.396,12.914 23.657,13.066 23.778,13.044 C24.662,12.885 25.068,13.560 25.557,14.061 C25.775,14.284 25.899,14.601 26.065,14.875 C26.186,14.811 26.307,14.747 26.428,14.683 C26.523,14.198 26.672,13.717 26.700,13.228 C26.752,12.329 27.187,11.758 27.986,11.668 C28.199,13.090 27.270,15.870 26.364,16.354 C26.622,16.687 26.855,16.726 27.211,16.497 C28.076,15.942 28.386,15.139 28.368,14.147 C28.349,13.146 28.434,13.041 29.441,12.628 C29.742,13.093 29.898,13.806 30.791,13.547 C30.758,13.293 30.742,13.000 30.681,12.716 C30.510,11.928 30.697,11.494 31.398,11.117 C31.454,11.087 31.528,11.078 31.572,11.037 C32.288,10.376 32.949,9.710 33.989,9.462 C34.521,9.335 34.902,8.631 35.399,8.251 C35.572,8.118 35.907,8.100 36.134,8.159 C36.564,8.273 36.961,8.511 37.388,8.640 C37.802,8.765 38.036,9.037 37.980,9.426 C37.946,9.666 37.716,9.907 37.520,10.087 C37.306,10.285 37.029,10.413 36.779,10.572 C36.851,10.669 36.923,10.766 36.994,10.863 C37.199,10.802 37.402,10.736 37.608,10.679 C38.200,10.515 38.796,10.362 39.385,10.187 C39.537,10.142 39.697,10.057 39.806,9.944 C40.603,9.111 41.066,9.006 42.093,9.451 C42.659,9.695 43.718,9.198 43.909,8.598 C43.935,8.516 43.973,8.438 43.997,8.356 C44.367,7.086 44.625,6.881 45.946,6.833 C46.245,6.821 46.547,6.812 46.845,6.832 C47.353,6.868 47.624,6.655 47.778,6.156 C47.848,5.930 48.123,5.644 48.338,5.612 C49.030,5.510 49.488,5.143 49.889,4.601 C50.193,4.192 50.583,3.848 50.970,3.436 C50.804,3.162 50.631,2.876 50.394,2.484 C51.168,1.760 51.909,0.984 52.738,0.319 C53.319,-0.147 54.048,-0.051 54.672,0.298 C55.126,0.552 54.998,0.998 54.761,1.348 C54.343,1.966 54.445,2.275 55.179,2.460 C55.925,2.649 56.534,3.498 56.603,4.312 C56.638,4.736 56.838,5.143 56.931,5.565 C56.972,5.748 56.974,5.963 56.917,6.138 C56.718,6.745 56.424,7.325 56.279,7.943 C56.011,9.082 56.500,10.038 57.604,10.394 C58.678,10.739 58.987,11.521 59.021,12.496 C59.038,12.972 59.083,13.310 59.619,13.463 C60.132,13.610 60.019,14.085 59.897,14.427 ZM19.427,20.006 C19.782,20.398 19.950,20.916 19.901,21.464 L19.729,22.835 L24.236,22.836 C24.481,22.836 24.703,22.971 24.815,23.188 L27.455,28.324 L27.626,28.324 C27.984,28.324 28.269,28.608 28.277,28.964 C28.277,28.970 28.277,28.975 28.277,28.981 C28.277,28.986 28.278,28.992 28.277,28.997 C28.277,29.007 28.276,29.016 28.275,29.025 C28.275,29.032 28.275,29.038 28.275,29.044 L27.867,33.590 C27.769,34.680 26.807,35.568 25.723,35.568 L25.307,35.568 C24.994,36.953 23.748,38.000 22.291,38.000 C20.834,38.000 19.642,36.953 19.402,35.568 L19.298,35.568 C18.797,35.568 18.338,35.384 17.992,35.050 C17.613,35.371 17.130,35.568 16.621,35.568 L10.315,35.568 C10.002,36.953 8.756,38.000 7.299,38.000 C5.841,38.000 4.650,36.953 4.409,35.567 L3.904,35.567 C3.360,35.567 2.865,35.352 2.511,34.961 C2.156,34.570 1.988,34.052 2.037,33.504 L2.266,31.092 L1.680,31.092 C1.310,31.092 1.019,30.790 1.028,30.418 C1.038,30.046 1.346,29.745 1.715,29.745 L2.394,29.745 L2.394,29.744 L10.472,29.744 C11.026,29.744 11.488,29.292 11.502,28.734 C11.515,28.223 11.150,27.803 10.663,27.734 L3.622,27.734 C3.252,27.734 2.960,27.433 2.970,27.061 C2.980,26.689 3.287,26.387 3.657,26.387 L10.782,26.387 C11.333,26.383 11.789,25.933 11.804,25.378 C11.817,24.872 11.459,24.455 10.979,24.380 L0.644,24.380 C0.278,24.380 -0.011,24.082 -0.001,23.713 C0.008,23.345 0.313,23.047 0.679,23.047 L8.485,23.047 C8.485,23.046 8.484,23.044 8.484,23.043 L11.142,23.043 C11.660,23.043 12.090,22.621 12.104,22.100 C12.117,21.579 11.709,21.157 11.191,21.157 L3.221,21.157 L3.362,20.027 C3.395,19.674 3.694,19.400 4.046,19.400 L18.034,19.400 C18.578,19.400 19.072,19.616 19.427,20.006 ZM22.326,36.653 C23.249,36.653 24.019,35.898 24.043,34.969 C24.067,34.041 23.336,33.285 22.414,33.285 C21.491,33.285 20.721,34.041 20.697,34.969 C20.672,35.898 21.403,36.653 22.326,36.653 ZM18.905,34.040 C19.011,34.156 19.163,34.221 19.333,34.221 L19.471,34.221 C19.837,32.910 21.045,31.939 22.449,31.939 C23.853,31.939 25.010,32.910 25.308,34.221 L25.758,34.221 C26.143,34.221 26.498,33.892 26.533,33.504 L26.877,29.671 L23.106,29.671 C22.562,29.671 22.067,29.456 21.713,29.064 C21.358,28.673 21.190,28.155 21.239,27.607 L21.546,24.182 L19.608,24.182 L18.764,33.590 C18.749,33.763 18.799,33.922 18.905,34.040 ZM7.421,33.285 C6.499,33.285 5.728,34.041 5.704,34.969 C5.680,35.898 6.411,36.653 7.334,36.653 C8.256,36.653 9.027,35.898 9.051,34.969 C9.075,34.041 8.344,33.285 7.421,33.285 Z"/>
</svg>