<svg
        xmlns="http://www.w3.org/2000/svg"
        xmlns:xlink="http://www.w3.org/1999/xlink"
        width="136px" height="33px">
    <text kerning="auto" font-family="Myriad Pro" fill="rgb(0, 0, 0)" transform="matrix( 3.09913187802475, 0, 0, 3.06735751295337,15.1809306138157, 30.1988186528497)" font-size="12.916px"><tspan font-size="12.916px" font-family="FontAwesome" fill="#00BD9D">&#61653;</tspan></text>
    <text kerning="auto" font-family="Myriad Pro" fill="rgb(0, 0, 0)" transform="matrix( 1.00019180809262, 0, 0, 1,68.4100584129214, 19.9850000000001)" font-size="14px"><tspan font-size="14px" fill="#FFFBFA">google&#32;plus</tspan></text>
</svg>